{
  "Class" : "node",
  "Model" : "NODE001",
  "Name" : "노드", 
  "CommSpec" : {
    "KS-X-3267:2018" : {
      "read" : 41001,
      "write" : 31001
    }
  },
  "CommParams" : {
    "KS-X-3267:2018" : {
      "read" : ["status"]
    }
  },
  "Devices": [{
    "Class" : "sensor",
    "Type" : "temperature sensor",
    "ValueUnit" : "℃", 
    "ValueType" : "float",
    "CommParams" : {
      "KS-X-3267:2018" : {
        "read" : ["observation", "status"]
      }
    }
  }, {
    "Class" : "sensor",
    "Type" : "humidity sensor",
    "ValueUnit" : "%", 
    "ValueType" : "float",
    "CommParams" : {
      "KS-X-3267:2018" : {
        "read" : ["observation", "status"]
      }
    }
  },{
    "Class" : "sensor",
    "Type" : "CO₂ sensor",
    "ValueUnit" : "ppm", 
    "ValueType" : "float",
    "CommParams" : {
      "KS-X-3267:2018" : {
        "read" : ["observation", "status"]
      }
    }
  },{
    "Class" : "sensor",
    "Type" : "pyranometer",
    "ValueUnit" : "W/㎡", 
    "ValueType" : "float",
    "CommParams" : {
      "KS-X-3267:2018" : {
        "read" : ["observation", "status"]
      }
    }
  },{
    "Class" : "sensor",
    "Type" : "wind direction sensor",
    "ValueUnit" : "°", 
    "ValueType" : "float",
    "CommParams" : {
      "KS-X-3267:2018" : {
        "read" : ["observation", "status"]
      }
    }
  },{
    "Class" : "sensor",
    "Type" : "wind speed sensor",
    "ValueUnit" : "m/s", 
    "ValueType" : "float",
    "CommParams" : {
      "KS-X-3267:2018" : {
        "read" : ["observation", "status"]
      }
    }
  },{
    "Class" : "sensor",
    "Type" : "rain detector",
    "ValueUnit" : "", 
    "ValueType" : "float",
    "CommParams" : {
      "KS-X-3267:2018" : {
        "read" : ["observation", "status"]
      }
    }
  },{
    "Class" : "sensor",
    "Type" : "quantum sensor",
    "ValueUnit" : "µmol/㎡/s", 
    "ValueType" : "float",
    "CommParams" : {
      "KS-X-3267:2018" : {
        "read" : ["observation", "status"]
      }
    }
  },{
    "Class" : "sensor",
    "Type" : "soil-moisture sensor",
    "ValueUnit" : "%vol.", 
    "ValueType" : "float",
    "CommParams" : {
      "KS-X-3267:2018" : {
        "read" : ["observation", "status"]
      }
    }
  },{
    "Class" : "sensor",
    "Type" : "tensiometer",
    "ValueUnit" : "kPa", 
    "ValueType" : "float",
    "CommParams" : {
      "KS-X-3267:2018" : {
        "read" : ["observation", "status"]
      }
    }
  },{
    "Class" : "sensor",
    "Type" : "electrical conductivity sensor",
    "ValueUnit" : "dS/m", 
    "ValueType" : "float",
    "CommParams" : {
      "KS-X-3267:2018" : {
        "read" : ["observation", "status"]
      }
    }
  },{
    "Class" : "sensor",
    "Type" : "hydrogen exponent sensor",
    "ValueUnit" : "pH", 
    "ValueType" : "float",
    "CommParams" : {
      "KS-X-3267:2018" : {
        "read" : ["observation", "status"]
      }
    }
  },{
    "Class" : "sensor",
    "Type" : "soil-temperature sensor",
    "ValueUnit" : "℃", 
    "ValueType" : "float",
    "CommParams" : {
      "KS-X-3267:2018" : {
        "read" : ["observation", "status"]
      }
    }
  }]
}

